simulation/qsim/ECE550Project.msim.vcd
$comment
	File created using the following command:
		vcd file ECE550Project.msim.vcd -direction
$end
$date
	Fri Oct 25 09:24:34 2024
$end
$version
	ModelSim Version 10.5b
$end
$timescale
	1ps
$end

$scope module skeleton_vlg_vec_tst $end
$var reg 1 ! clock $end
$var reg 1 " reset $end
$var wire 1 # dmem_clock $end
$var wire 1 $ imem_clock $end
$var wire 1 % pc_n [11] $end
$var wire 1 & pc_n [10] $end
$var wire 1 ' pc_n [9] $end
$var wire 1 ( pc_n [8] $end
$var wire 1 ) pc_n [7] $end
$var wire 1 * pc_n [6] $end
$var wire 1 + pc_n [5] $end
$var wire 1 , pc_n [4] $end
$var wire 1 - pc_n [3] $end
$var wire 1 . pc_n [2] $end
$var wire 1 / pc_n [1] $end
$var wire 1 0 pc_n [0] $end
$var wire 1 1 processor_clock $end
$var wire 1 2 regfile_clock $end

$scope module i1 $end
$var wire 1 3 gnd $end
$var wire 1 4 vcc $end
$var wire 1 5 unknown $end
$var tri1 1 6 devclrn $end
$var tri1 1 7 devpor $end
$var tri1 1 8 devoe $end
$var wire 1 9 imem_clock~output_o $end
$var wire 1 : dmem_clock~output_o $end
$var wire 1 ; processor_clock~output_o $end
$var wire 1 < regfile_clock~output_o $end
$var wire 1 = pc_n[0]~output_o $end
$var wire 1 > pc_n[1]~output_o $end
$var wire 1 ? pc_n[2]~output_o $end
$var wire 1 @ pc_n[3]~output_o $end
$var wire 1 A pc_n[4]~output_o $end
$var wire 1 B pc_n[5]~output_o $end
$var wire 1 C pc_n[6]~output_o $end
$var wire 1 D pc_n[7]~output_o $end
$var wire 1 E pc_n[8]~output_o $end
$var wire 1 F pc_n[9]~output_o $end
$var wire 1 G pc_n[10]~output_o $end
$var wire 1 H pc_n[11]~output_o $end
$var wire 1 I clock~input_o $end
$var wire 1 J clock~inputclkctrl_outclk $end
$var wire 1 K div2|dff|q~0_combout $end
$var wire 1 L div2|dff|q~feeder_combout $end
$var wire 1 M div2|dff|q~q $end
$var wire 1 N div1|dff|q~0_combout $end
$var wire 1 O div1|dff|q~q $end
$var wire 1 P div2|dff|q~clkctrl_outclk $end
$var wire 1 Q reset~input_o $end
$var wire 1 R reset~inputclkctrl_outclk $end
$var wire 1 S my_processor|pc|dffes[0]._dffe|q~q $end
$var wire 1 T my_processor|pc_inc|Add0~0_combout $end
$var wire 1 U my_processor|pc|dffes[1]._dffe|q~q $end
$var wire 1 V my_processor|pc_inc|Add0~1 $end
$var wire 1 W my_processor|pc_inc|Add0~2_combout $end
$var wire 1 X my_processor|pc|dffes[2]._dffe|q~q $end
$var wire 1 Y my_processor|pc_inc|Add0~3 $end
$var wire 1 Z my_processor|pc_inc|Add0~4_combout $end
$var wire 1 [ my_processor|pc|dffes[3]._dffe|q~q $end
$var wire 1 \ my_processor|pc_inc|Add0~5 $end
$var wire 1 ] my_processor|pc_inc|Add0~6_combout $end
$var wire 1 ^ my_processor|pc|dffes[4]._dffe|q~q $end
$var wire 1 _ my_processor|pc_inc|Add0~7 $end
$var wire 1 ` my_processor|pc_inc|Add0~8_combout $end
$var wire 1 a my_processor|pc|dffes[5]._dffe|q~q $end
$var wire 1 b my_processor|pc_inc|Add0~9 $end
$var wire 1 c my_processor|pc_inc|Add0~10_combout $end
$var wire 1 d my_processor|pc|dffes[6]._dffe|q~q $end
$var wire 1 e my_processor|pc_inc|Add0~11 $end
$var wire 1 f my_processor|pc_inc|Add0~12_combout $end
$var wire 1 g my_processor|pc|dffes[7]._dffe|q~q $end
$var wire 1 h my_processor|pc_inc|Add0~13 $end
$var wire 1 i my_processor|pc_inc|Add0~14_combout $end
$var wire 1 j my_processor|pc|dffes[8]._dffe|q~q $end
$var wire 1 k my_processor|pc_inc|Add0~15 $end
$var wire 1 l my_processor|pc_inc|Add0~16_combout $end
$var wire 1 m my_processor|pc|dffes[9]._dffe|q~q $end
$var wire 1 n my_processor|pc_inc|Add0~17 $end
$var wire 1 o my_processor|pc_inc|Add0~18_combout $end
$var wire 1 p my_processor|pc|dffes[10]._dffe|q~q $end
$var wire 1 q my_processor|pc_inc|Add0~19 $end
$var wire 1 r my_processor|pc_inc|Add0~20_combout $end
$var wire 1 s my_processor|pc|dffes[11]._dffe|q~q $end
$var wire 1 t my_processor|pc_inc|Add0~21 $end
$var wire 1 u my_processor|pc_inc|Add0~22_combout $end
$upscope $end
$upscope $end
$enddefinitions $end
#0
$dumpvars
0!
1"
1#
1$
10
0/
0.
0-
0,
0+
0*
0)
0(
0'
0&
0%
01
02
03
14
x5
16
17
18
19
1:
0;
0<
1=
0>
0?
0@
0A
0B
0C
0D
0E
0F
0G
0H
0I
0J
1K
1L
0M
1N
0O
0P
1Q
1R
0S
1T
0U
0V
0W
0X
1Y
0Z
0[
0\
0]
0^
1_
0`
0a
0b
0c
0d
1e
0f
0g
0h
0i
0j
1k
0l
0m
0n
0o
0p
1q
0r
0s
0t
0u
$end
#10000
1!
1I
1J
0:
09
0$
0#
1O
1M
1P
1;
1<
0K
12
11
0N
0L
#20000
0!
0I
0J
1:
19
1$
1#
#30000
0"
1!
0Q
1I
0R
1J
0:
09
0$
0#
0O
0M
0P
0;
0<
1K
02
01
1N
1L
#40000
0!
0I
0J
1:
19
1$
1#
#50000
1!
1I
1J
0:
09
0$
0#
1O
1M
1P
1;
1<
0K
12
11
0N
0L
1S
1V
0T
0=
00
1W
1>
1/
#60000
0!
0I
0J
1:
19
1$
1#
#70000
1!
1I
1J
0:
09
0$
0#
0O
0M
0P
0;
0<
1K
02
01
1N
1L
#80000
0!
0I
0J
1:
19
1$
1#
#90000
1!
1I
1J
0:
09
0$
0#
1O
1M
1P
1;
1<
0K
12
11
0N
0L
1U
0S
0Y
0V
0W
1T
1=
0>
1Y
0/
10
1Z
1W
1>
1?
1.
1/
0Z
0?
0.
#100000
0!
0I
0J
1:
19
1$
1#
#110000
1!
1I
1J
0:
09
0$
0#
0O
0M
0P
0;
0<
1K
02
01
1N
1L
#120000
0!
0I
0J
1:
19
1$
1#
#130000
1!
1I
1J
0:
09
0$
0#
1O
1M
1P
1;
1<
0K
12
11
0N
0L
1S
1V
0T
0=
0Y
00
0W
0>
0/
1Z
1?
1.
#140000
0!
0I
0J
1:
19
1$
1#
#150000
1!
1I
1J
0:
09
0$
0#
0O
0M
0P
0;
0<
1K
02
01
1N
1L
#160000
0!
0I
0J
1:
19
1$
1#
#170000
1!
1I
1J
0:
09
0$
0#
1O
1M
1P
1;
1<
0K
12
11
0N
0L
1X
0U
0S
1\
1Y
0V
0Z
1W
1T
1=
1>
0?
0\
0.
1/
10
1]
1Z
0W
0>
1?
1@
1-
1.
0/
0]
0@
0-
#180000
0!
0I
0J
1:
19
1$
1#
#190000
1!
1I
1J
0:
09
0$
0#
0O
0M
0P
0;
0<
1K
02
01
1N
1L
#200000
0!
0I
0J
1:
19
1$
1#
#210000
1!
1I
1J
0:
09
0$
0#
1O
1M
1P
1;
1<
0K
12
11
0N
0L
1S
1V
0T
0=
00
1W
1>
1/
#220000
0!
0I
0J
1:
19
1$
1#
#230000
1!
1I
1J
0:
09
0$
0#
0O
0M
0P
0;
0<
1K
02
01
1N
1L
#240000
0!
0I
0J
1:
19
1$
1#
#250000
1!
1I
1J
0:
09
0$
0#
1O
1M
1P
1;
1<
0K
12
11
0N
0L
1U
0S
0Y
0V
0W
1T
1=
0>
1\
1Y
0/
10
0Z
1W
1>
0?
0\
0.
1/
1]
1Z
1?
1@
1-
1.
0]
0@
0-
#260000
0!
0I
0J
1:
19
1$
1#
#270000
1!
1I
1J
0:
09
0$
0#
0O
0M
0P
0;
0<
1K
02
01
1N
1L
#280000
0!
0I
0J
1:
19
1$
1#
#290000
1!
1I
1J
0:
09
0$
0#
1O
1M
1P
1;
1<
0K
12
11
0N
0L
1S
1V
0T
0=
0Y
00
0W
0>
1\
0/
0Z
0?
0.
1]
1@
1-
#300000
0!
0I
0J
1:
19
1$
1#
#310000
1!
1I
1J
0:
09
0$
0#
0O
0M
0P
0;
0<
1K
02
01
1N
1L
#320000
0!
0I
0J
1:
19
1$
1#
#330000
1!
1I
1J
0:
09
0$
0#
1O
1M
1P
1;
1<
0K
12
11
0N
0L
1[
0X
0U
0S
0_
0\
1Y
0V
0]
1Z
1W
1T
1=
1>
1?
0@
1_
0-
1.
1/
10
1`
1]
0Z
0W
0>
0?
1@
1A
1,
1-
0.
0/
0`
0A
0,
#340000
0!
0I
0J
1:
19
1$
1#
#350000
1!
1I
1J
0:
09
0$
0#
0O
0M
0P
0;
0<
1K
02
01
1N
1L
#360000
0!
0I
0J
1:
19
1$
1#
#370000
1!
1I
1J
0:
09
0$
0#
1O
1M
1P
1;
1<
0K
12
11
0N
0L
1S
1V
0T
0=
00
1W
1>
1/
#380000
0!
0I
0J
1:
19
1$
1#
#390000
1!
1I
1J
0:
09
0$
0#
0O
0M
0P
0;
0<
1K
02
01
1N
1L
#400000
0!
0I
0J
1:
19
1$
1#
#410000
1!
1I
1J
0:
09
0$
0#
1O
1M
1P
1;
1<
0K
12
11
0N
0L
1U
0S
0Y
0V
0W
1T
1=
0>
1Y
0/
10
1Z
1W
1>
1?
1.
1/
0Z
0?
0.
#420000
0!
0I
0J
1:
19
1$
1#
#430000
1!
1I
1J
0:
09
0$
0#
0O
0M
0P
0;
0<
1K
02
01
1N
1L
#440000
0!
0I
0J
1:
19
1$
1#
#450000
1!
1I
1J
0:
09
0$
0#
1O
1M
1P
1;
1<
0K
12
11
0N
0L
1S
1V
0T
0=
0Y
00
0W
0>
0/
1Z
1?
1.
#460000
0!
0I
0J
1:
19
1$
1#
#470000
1!
1I
1J
0:
09
0$
0#
0O
0M
0P
0;
0<
1K
02
01
1N
1L
#480000
0!
0I
0J
1:
19
1$
1#
#490000
1!
1I
1J
0:
09
0$
0#
1O
1M
1P
1;
1<
0K
12
11
0N
0L
1X
0U
0S
1\
1Y
0V
0Z
1W
1T
1=
1>
0?
0_
0\
0.
1/
10
0]
1Z
0W
0>
1?
0@
1_
0-
1.
0/
1`
1]
1@
1A
1,
1-
0`
0A
0,
#500000
0!
0I
0J
1:
19
1$
1#
#510000
1!
1I
1J
0:
09
0$
0#
0O
0M
0P
0;
0<
1K
02
01
1N
1L
#520000
0!
0I
0J
1:
19
1$
1#
#530000
1!
1I
1J
0:
09
0$
0#
1O
1M
1P
1;
1<
0K
12
11
0N
0L
1S
1V
0T
0=
00
1W
1>
1/
#540000
0!
0I
0J
1:
19
1$
1#
#550000
1!
1I
1J
0:
09
0$
0#
0O
0M
0P
0;
0<
1K
02
01
1N
1L
#560000
0!
0I
0J
1:
19
1$
1#
#570000
1!
1I
1J
0:
09
0$
0#
1O
1M
1P
1;
1<
0K
12
11
0N
0L
1U
0S
0Y
0V
0W
1T
1=
0>
1\
1Y
0/
10
0Z
1W
1>
0?
0_
0\
0.
1/
0]
1Z
1?
0@
1_
0-
1.
1`
1]
1@
1A
1,
1-
0`
0A
0,
#580000
0!
0I
0J
1:
19
1$
1#
#590000
1!
1I
1J
0:
09
0$
0#
0O
0M
0P
0;
0<
1K
02
01
1N
1L
#600000
0!
0I
0J
1:
19
1$
1#
#610000
1!
1I
1J
0:
09
0$
0#
1O
1M
1P
1;
1<
0K
12
11
0N
0L
1S
1V
0T
0=
0Y
00
0W
0>
1\
0/
0Z
0?
0_
0.
0]
0@
0-
1`
1A
1,
#620000
0!
0I
0J
1:
19
1$
1#
#630000
1!
1I
1J
0:
09
0$
0#
0O
0M
0P
0;
0<
1K
02
01
1N
1L
#640000
0!
0I
0J
1:
19
1$
1#
#650000
1!
1I
1J
0:
09
0$
0#
1O
1M
1P
1;
1<
0K
12
11
0N
0L
1^
0[
0X
0U
0S
1b
1_
0\
1Y
0V
0`
1]
1Z
1W
1T
1=
1>
1?
1@
0A
0b
0,
1-
1.
1/
10
1c
1`
0]
0Z
0W
0>
0?
0@
1A
1B
1+
1,
0-
0.
0/
0c
0B
0+
#660000
0!
0I
0J
1:
19
1$
1#
#670000
1!
1I
1J
0:
09
0$
0#
0O
0M
0P
0;
0<
1K
02
01
1N
1L
#680000
0!
0I
0J
1:
19
1$
1#
#690000
1!
1I
1J
0:
09
0$
0#
1O
1M
1P
1;
1<
0K
12
11
0N
0L
1S
1V
0T
0=
00
1W
1>
1/
#700000
0!
0I
0J
1:
19
1$
1#
#710000
1!
1I
1J
0:
09
0$
0#
0O
0M
0P
0;
0<
1K
02
01
1N
1L
#720000
0!
0I
0J
1:
19
1$
1#
#730000
1!
1I
1J
0:
09
0$
0#
1O
1M
1P
1;
1<
0K
12
11
0N
0L
1U
0S
0Y
0V
0W
1T
1=
0>
1Y
0/
10
1Z
1W
1>
1?
1.
1/
0Z
0?
0.
#740000
0!
0I
0J
1:
19
1$
1#
#750000
1!
1I
1J
0:
09
0$
0#
0O
0M
0P
0;
0<
1K
02
01
1N
1L
#760000
0!
0I
0J
1:
19
1$
1#
#770000
1!
1I
1J
0:
09
0$
0#
1O
1M
1P
1;
1<
0K
12
11
0N
0L
1S
1V
0T
0=
0Y
00
0W
0>
0/
1Z
1?
1.
#780000
0!
0I
0J
1:
19
1$
1#
#790000
1!
1I
1J
0:
09
0$
0#
0O
0M
0P
0;
0<
1K
02
01
1N
1L
#800000
0!
0I
0J
1:
19
1$
1#
#810000
1!
1I
1J
0:
09
0$
0#
1O
1M
1P
1;
1<
0K
12
11
0N
0L
1X
0U
0S
1\
1Y
0V
0Z
1W
1T
1=
1>
0?
0\
0.
1/
10
1]
1Z
0W
0>
1?
1@
1-
1.
0/
0]
0@
0-
#820000
0!
0I
0J
1:
19
1$
1#
#830000
1!
1I
1J
0:
09
0$
0#
0O
0M
0P
0;
0<
1K
02
01
1N
1L
#840000
0!
0I
0J
1:
19
1$
1#
#850000
1!
1I
1J
0:
09
0$
0#
1O
1M
1P
1;
1<
0K
12
11
0N
0L
1S
1V
0T
0=
00
1W
1>
1/
#860000
0!
0I
0J
1:
19
1$
1#
#870000
1!
1I
1J
0:
09
0$
0#
0O
0M
0P
0;
0<
1K
02
01
1N
1L
#880000
0!
0I
0J
1:
19
1$
1#
#890000
1!
1I
1J
0:
09
0$
0#
1O
1M
1P
1;
1<
0K
12
11
0N
0L
1U
0S
0Y
0V
0W
1T
1=
0>
1\
1Y
0/
10
0Z
1W
1>
0?
0\
0.
1/
1]
1Z
1?
1@
1-
1.
0]
0@
0-
#900000
0!
0I
0J
1:
19
1$
1#
#910000
1!
1I
1J
0:
09
0$
0#
0O
0M
0P
0;
0<
1K
02
01
1N
1L
#920000
0!
0I
0J
1:
19
1$
1#
#930000
1!
1I
1J
0:
09
0$
0#
1O
1M
1P
1;
1<
0K
12
11
0N
0L
1S
1V
0T
0=
0Y
00
0W
0>
1\
0/
0Z
0?
0.
1]
1@
1-
#940000
0!
0I
0J
1:
19
1$
1#
#950000
1!
1I
1J
0:
09
0$
0#
0O
0M
0P
0;
0<
1K
02
01
1N
1L
#960000
0!
0I
0J
1:
19
1$
1#
#970000
1!
1I
1J
0:
09
0$
0#
1O
1M
1P
1;
1<
0K
12
11
0N
0L
1[
0X
0U
0S
0_
0\
1Y
0V
0]
1Z
1W
1T
1=
1>
1?
0@
1b
1_
0-
1.
1/
10
0`
1]
0Z
0W
0>
0?
1@
0A
0b
0,
1-
0.
0/
1c
1`
1A
1B
1+
1,
0c
0B
0+
#980000
0!
0I
0J
1:
19
1$
1#
#990000
1!
1I
1J
0:
09
0$
0#
0O
0M
0P
0;
0<
1K
02
01
1N
1L
